{
  "NEWHUB162": {
    "theme": "DEFAULT",
    "mandatory": true,
    "rejectNagEnabled": false,
    "prechecked": false,
    "continuanceNagEnabled": false,
    "showModalDualContract": true,
    "isAttachableFromModal": false,
    "pricePerception": "INCLUDED"
  },
  "CNXFLT151": {
    "theme": "DEFAULT",
    "mandatory": false,
    "rejectNagEnabled": true,
    "prechecked": false,
    "continuanceNagEnabled": true,
    "showModalDualContract": true,
    "ipid": true,
    "isAttachableFromModal": false,
    "pricePerception": "PERSEGMENT"
  },
  "CNXHOT155": {
    "theme": "DEFAULT",
    "mandatory": false,
    "rejectNagEnabled": true,
    "prechecked": false,
    "continuanceNagEnabled": true,
    "showModalDualContract": true,
    "ipid": true,
    "isAttachableFromModal": false,
    "pricePerception": "PERSEGMENT"
  },
  "CNXAST152": {
    "theme": "DEFAULT",
    "mandatory": false,
    "rejectNagEnabled": true,
    "prechecked": false,
    "continuanceNagEnabled": true,
    "showModalDualContract": true,
    "ipid": true,
    "isAttachableFromModal": false,
    "pricePerception": "PERSEGMENT"
  },
  "CNXFHL154": {
    "theme": "DEFAULT",
    "mandatory": false,
    "rejectNagEnabled": true,
    "prechecked": false,
    "continuanceNagEnabled": true,
    "showModalDualContract": true,
    "ipid": true,
    "isAttachableFromModal": false,
    "pricePerception": "PERSEGMENT"
  },
  "ASTONL162": {
    "theme": "DEFAULT",
    "mandatory": false,
    "rejectNagEnabled": true,
    "prechecked": false,
    "continuanceNagEnabled": true,
    "showModalDualContract": true,
    "ipid": true,
    "isAttachableFromModal": false,
    "pricePerception": "PERSEGMENT"
  },
  "CANXSELF": {
    "theme": "DEFAULT",
    "mandatory": false,
    "rejectNagEnabled": false,
    "prechecked": false,
    "continuanceNagEnabled": false,
    "showModalDualContract": true,
    "isAttachableFromModal": false,
    "pricePerception": "PERSEGMENT"
  },
  "G-AIRI01": {
    "theme": "DEFAULT",
    "mandatory": false,
    "rejectNagEnabled": false,
    "prechecked": false,
    "continuanceNagEnabled": true,
    "showModalDualContract": false,
    "isAttachableFromModal": false,
    "pricePerception": "PERPLAN"
  },
  "G-AIRD01": {
    "theme": "DEFAULT",
    "mandatory": false,
    "rejectNagEnabled": false,
    "prechecked": false,
    "continuanceNagEnabled": true,
    "showModalDualContract": false,
    "pricePerception": "PERPLAN"
  },
  "G-AIRI02": {
    "theme": "DEFAULT",
    "mandatory": false,
    "rejectNagEnabled": false,
    "prechecked": false,
    "continuanceNagEnabled": true,
    "showModalDualContract": false,
    "isAttachableFromModal": false,
    "pricePerception": "PERPLAN"
  },
  "G-AIRD02": {
    "theme": "DEFAULT",
    "mandatory": false,
    "rejectNagEnabled": false,
    "prechecked": false,
    "continuanceNagEnabled": true,
    "showModalDualContract": false,
    "pricePerception": "PERPLAN"
  },
  "FLEXSELF": {
    "theme": "DEFAULT",
    "mandatory": false,
    "rejectNagEnabled": false,
    "prechecked": false,
    "continuanceNagEnabled": false,
    "showModalDualContract": false,
    "pricePerception": "PERSEGMENT"
  },
  "FLEXRB156": {
    "theme": "DEFAULT",
    "mandatory": false,
    "rejectNagEnabled": false,
    "prechecked": false,
    "continuanceNagEnabled": false,
    "isModalActive": true,
    "showModalExclusions": true,
    "showModalDualContract": false,
    "ipid": true,
    "pricePerception": "PERSEGMENT"
  },
  "FLEXRB160": {
    "theme": "DEFAULT",
    "mandatory": false,
    "rejectNagEnabled": false,
    "prechecked": false,
    "continuanceNagEnabled": false,
    "isModalActive": true,
    "showModalExclusions": true,
    "showModalDualContract": false,
    "ipid": true,
    "pricePerception": "PERSEGMENT"
  },
  "FLEXUK164": {
    "theme": "DEFAULT",
    "mandatory": false,
    "rejectNagEnabled": false,
    "prechecked": false,
    "continuanceNagEnabled": false,
    "isModalActive": true,
    "showModalExclusions": true,
    "showModalDualContract": false,
    "ipid": true,
    "pricePerception": "PERSEGMENT"
  },
  "CNXAST158": {
    "theme": "DEFAULT",
    "mandatory": false,
    "rejectNagEnabled": true,
    "prechecked": false,
    "continuanceNagEnabled": true,
    "showModalDualContract": true,
    "ipid": true,
    "isAttachableFromModal": false,
    "pricePerception": "PERSEGMENT"
  },
  "CNXFHL157": {
    "theme": "DEFAULT",
    "mandatory": false,
    "rejectNagEnabled": true,
    "prechecked": false,
    "continuanceNagEnabled": true,
    "showModalDualContract": true,
    "ipid": true,
    "isAttachableFromModal": false,
    "pricePerception": "PERSEGMENT"
  },
  "1-26-5251592": {
    "theme": "DEFAULT",
    "mandatory": false,
    "rejectNagEnabled": true,
    "prechecked": true,
    "continuanceNagEnabled": true,
    "showModalDualContract": false,
    "isAttachableFromModal": false,
    "pricePerception": "PERSEGMENT"
  },
  "56-0009760": {
    "theme": "DEFAULT",
    "mandatory": false,
    "rejectNagEnabled": true,
    "prechecked": false,
    "continuanceNagEnabled": true,
    "showModalDualContract": false,
    "isAttachableFromModal": false,
    "pricePerception": "PERSEGMENT"
  },
  "COMPREH163": {
    "theme": "DEFAULT",
    "mandatory": false,
    "rejectNagEnabled": false,
    "prechecked": false,
    "continuanceNagEnabled": true,
    "showModalDualContract": true,
    "ipid": true,
    "isAttachableFromModal": false,
    "pricePerception": "PERSEGMENT"
  },
  "CONFIRMATION_SMS": {
    "theme": "DEFAULT",
    "rejectNagEnabled": false,
    "pricePerception": "PERPLAN",
    "isModalActive": false,
    "showModalBenefits": false,
    "showModalExclusions": false,
    "isAttachableFromModal": false,
    "continuanceNagEnabled": false
  },
  "BAGGAGE_ASSISTANCE": {
    "theme": "DEFAULT",
    "rejectNagEnabled": false,
    "pricePerception": "PERPAX",
    "isModalActive": true,
    "showModalBenefits": true,
    "showModalExclusions": false,
    "isAttachableFromModal": true,
    "continuanceNagEnabled": false
  },
  "POSTED_TICKET": {
    "theme": "DEFAULT",
    "rejectNagEnabled": false,
    "pricePerception": "PERPLAN",
    "isModalActive": false,
    "showModalBenefits": false,
    "showModalExclusions": false,
    "isAttachableFromModal": false,
    "continuanceNagEnabled": false
  },
  "EVISA": {
    "theme": "DEFAULT",
    "rejectNagEnabled": false,
    "pricePerception": "PERPAX",
    "isModalActive": true,
    "showModalBenefits": true,
    "showModalExclusions": false,
    "isAttachableFromModal": true,
    "continuanceNagEnabled": false
  },
  "ESTA": {
    "theme": "DEFAULT",
    "rejectNagEnabled": false,
    "pricePerception": "PERPAX",
    "isModalActive": true,
    "showModalBenefits": true,
    "showModalExclusions": false,
    "isAttachableFromModal": true,
    "continuanceNagEnabled": false
  },
  "AUTO_CHECKIN": {
    "theme": "DEFAULT",
    "rejectNagEnabled": false,
    "pricePerception": "PERSEGMENT",
    "isModalActive": true,
    "showModalBenefits": true,
    "showModalExclusions": false,
    "isAttachableFromModal": true,
    "continuanceNagEnabled": false
  },
  "SAFINS165": {
    "theme": "DEFAULT",
    "mandatory": false,
    "rejectNagEnabled": false,
    "prechecked": false,
    "continuanceNagEnabled": false,
    "showModalDualContract": false,
    "pricePerception": "PERSEGMENT",
    "isModalActive": true,
    "showModalExclusions": true,
    "ipid": true
  },
  "BASIC": {
    "showModalBenefits": false,
    "isAttachableFromModal": false,
    "continuanceNagEnabled": false,
    "pricePerception": "PERPAX"
  },
  "STANDARD": {
    "showModalBenefits": true,
    "isAttachableFromModal": true,
    "continuanceNagEnabled": false,
    "pricePerception": "PERPAX"
  },
  "PREMIUM": {
    "showModalBenefits": true,
    "isAttachableFromModal": true,
    "continuanceNagEnabled": false,
    "pricePerception": "PERPAX"
  },
  "FLEXIBLE_FARE_RULE": {
    "pricePerception": "PERPAX"
  },
  "PREMIUM_FARE_RULE": {
    "pricePerception": "PERPAX"
  }
}