{
  "CNXFLT151": {
    "ipid": false
  },
  "CNXAST152": {
    "ipid": false
  },
  "CNXFHL154": {
    "ipid": false
  },
  "ASTONL162": {
    "ipid": false
  },
  "FLEXRB156": {
    "ipid": false
  },
  "FLEXRB160": {
    "ipid": false
  }
}
