{
  "checkinInformation": {
    "sections": [
      {
        "sectionId": 0,
        "passengerName": "Maverick Agostini",
        "status": "SUSPENDED",
        "boardingPassId": "4386d16cc76f44ab8ff38786639ae17c",
        "boardingPassUrl": null,
        "boardingPassMobile": {
          "flightName": "QR138",
          "departureAirport": "BCN",
          "departureAirportName": "Barcelona El Prat Airport",
          "departureDate": "2022-03-23",
          "departureTime": "08:20",
          "boardingTime": "1:20:00",
          "arrivalAirport": "DOH",
          "arrivalAirportName": "Doha International Airport",
          "arrivalDate": "2022-03-23",
          "arrivalTime": "16:35",
          "carrierName": "Qatar Airways",
          "seat": null
        }
      }
    ]
  }
}
