{
  "available": true,
  "checkInWindow": {
    "closingTimeInMinutes": 135,
    "dataSyncOffset": 0,
    "openingTimeInMinutes": 1800
  },
  "requiresAdvancedPassengerInformation": true,
  "requiredPassengerDetails": {
    "gender": false,
    "dateOfBirth": true,
    "locale": false,
    "mobilePhone": false,
    "email": false,
    "citizenship": true,
    "countryOfResidence": true,
    "requiredContactDetails": {
      "fullName": true,
      "phone": true,
      "relation": true
    },
    "requiredTravelDocumentDetails": {
      "PASSPORT": {
        "travelDocumentType": "PASSPORT",
        "number": true,
        "issued": false,
        "expiration": true,
        "issuingCountry": true,
        "monthsDocumentValidity": 6
      }
    },
    "requiredArrivalDetails": {
      "state": true,
      "city": true,
      "address": true,
      "zip": true
    },
    "requiredTravelPermissions": {
      "noVisaReason": true,
      "requiredOnwardFlight": {
        "airportDestination": true,
        "date": true,
        "number": true
      },
      "requiredResidentPermit": {
        "expiration": true,
        "expires": true,
        "issueCountry": true,
        "number": true
      },
      "requiredVisaDetails": {
        "possibleTypes": [
          "tourist",
          "other"
        ],
        "number": true,
        "expiration": true,
        "issueCountry": true,
        "issueDate": true
      }
    }
  },
  "requiresTravelPermissions": true
}
