{
  "CNXFLT151": {
    "rejectNagEnabled": false
  },
  "CNXAST152": {
    "rejectNagEnabled": false
  },
  "CNXFHL154": {
    "rejectNagEnabled": false
  },
  "CANXSELF": {
    "rejectNagEnabled": false
  },
  "FLEXSELF": {
    "rejectNagEnabled": false
  },
  "FLEXRB156": {
    "rejectNagEnabled": false
  },
  "FLEXRB160": {
    "rejectNagEnabled": false
  }
}