{
  "CNXFLT151": {
    "rejectNagEnabled": false
  },
  "CNXAST152": {
    "rejectNagEnabled": false
  },
  "CNXFHL154": {
    "rejectNagEnabled": false
  },
  "ASTONL162": {
    "rejectNagEnabled": false
  }
}
