{
  "CANXSELF": {
    "rejectNagEnabled": false
  },
  "FLEXSELF": {
    "rejectNagEnabled": false
  },
  "FLEXRB156": {
    "rejectNagEnabled": false
  },
  "FLEXRB160": {
    "rejectNagEnabled": false
  }
}